{
  "kind": "collectionType",
  "collectionName": "logs",
  "info": {
    "singularName": "log",
    "pluralName": "logs",
    "displayName": "log",
    "description": ""
  },
  "options": {
    "draftAndPublish": false
  },
  "pluginOptions": {},
  "attributes": {
    "username": {
      "type": "string"
    },
    "method": {
      "type": "string"
    },
    "endpoint": {
      "type": "string"
    },
    "oldData": {
      "type": "json"
    },
    "newData": {
      "type": "json"
    }
  }
}
