{
  "kind": "collectionType",
  "collectionName": "payment_transactions",
  "info": {
    "singularName": "payment-transaction",
    "pluralName": "payment-transactions",
    "displayName": "paymentTransaction",
    "description": ""
  },
  "options": {
    "draftAndPublish": true
  },
  "pluginOptions": {},
  "attributes": {
    "status": {
      "type": "integer"
    },
    "blockNumber": {
      "type": "biginteger"
    },
    "timestamp": {
      "type": "biginteger"
    },
    "from": {
      "type": "string"
    },
    "to": {
      "type": "string"
    },
    "value": {
      "type": "decimal"
    },
    "tracked_transaction": {
      "type": "relation",
      "relation": "manyToOne",
      "target": "api::tracked-transaction.tracked-transaction",
      "inversedBy": "payment_transactions"
    }
  }
}
