{
  "kind": "collectionType",
  "collectionName": "priorities",
  "info": {
    "singularName": "priority",
    "pluralName": "priorities",
    "displayName": "priority",
    "description": ""
  },
  "options": {
    "draftAndPublish": true
  },
  "pluginOptions": {},
  "attributes": {
    "title": {
      "type": "string"
    }
  }
}
