{
  "kind": "collectionType",
  "collectionName": "statuses",
  "info": {
    "singularName": "status",
    "pluralName": "statuses",
    "displayName": "status",
    "description": ""
  },
  "options": {
    "draftAndPublish": true
  },
  "pluginOptions": {},
  "attributes": {
    "title": {
      "type": "string"
    },
    "statusCode": {
      "type": "string",
      "required": true,
      "unique": true
    }
  }
}
