{
  "kind": "collectionType",
  "collectionName": "groups",
  "info": {
    "singularName": "group",
    "pluralName": "groups",
    "displayName": "Group",
    "description": ""
  },
  "options": {
    "draftAndPublish": true
  },
  "pluginOptions": {},
  "attributes": {
    "groupName": {
      "type": "string"
    },
    "status": {
      "type": "relation",
      "relation": "oneToOne",
      "target": "api::status.status"
    },
    "project": {
      "type": "relation",
      "relation": "manyToOne",
      "target": "api::project.project",
      "inversedBy": "groups"
    },
    "sharingRatio": {
      "type": "decimal"
    },
    "builds": {
      "type": "relation",
      "relation": "oneToMany",
      "target": "api::build.build",
      "mappedBy": "group"
    },
    "guilds": {
      "type": "relation",
      "relation": "oneToMany",
      "target": "api::guild.guild",
      "mappedBy": "group"
    }
  }
}
